<?xml version="1.0" encoding="UTF-8"?>
<svg width="700pt" height="700pt" version="1.1" viewBox="0 0 700 700" xmlns="http://www.w3.org/2000/svg">
 <path d="m349.98 16.746c-112.14 0-203.04 90.93-203.04 203.05 0 29.137 14.422 76.512 34.004 103.74 19.602 27.23 152.95 212.47 152.95 212.47 4.4453 4.8281 10.254 7.2266 16.066 7.2617 5.8438-0.015625 11.691-2.4141 16.102-7.2617 0 0 133.37-185.24 152.95-212.47 19.602-27.23 34.004-74.602 34.004-103.74 0.027343-112.12-90.883-203.05-203.04-203.05zm0 315.72c-64.086 0-116.04-51.977-116.04-116.06 0-64.102 51.957-116.06 116.04-116.06 64.121 0 116.08 51.957 116.08 116.06-0.003906 64.082-51.961 116.06-116.08 116.06z"/>
</svg>
